#Einwohner in Deutschland nach Bundesländern*)
##Jahr	1000 Personen (Jahresdurchschnitt)
Jahr	BW	BY	BE	BB	HB	HH	HE	MV	NI	NW	RP	SL	SN	ST	SH	TH	D
1991	9904.0	11517.8	3436.2	2559.8	682.4	1658.7	5797.9	1907.2	7427.7	17421.3	3792.1	1074.5	4719.5	2847.7	2636.1	2590.6	79973.4
1992	10050.4	11668.8	3444.4	2540.2	684.0	1673.0	5872.2	1876.5	7515.1	17568.6	3850.3	1079.0	4653.6	2807.4	2660.2	2555.9	80499.8
1993	10149.3	11792.7	3450.7	2535.5	683.3	1685.9	5931.7	1851.2	7594.3	17676.0	3902.1	1081.9	4613.8	2782.8	2680.8	2534.4	80946.5
1994	10195.3	11859.9	3445.1	2530.5	679.9	1690.3	5955.4	1833.6	7656.2	17728.4	3936.9	1081.2	4581.5	2762.1	2692.9	2518.3	81147.5
1995	10223.1	11917.0	3434.2	2530.6	677.8	1689.0	5971.7	1822.2	7714.6	17779.9	3962.4	1080.3	4556.6	2740.7	2706.0	2501.7	81307.7
1996	10260.1	11970.3	3418.4	2537.1	676.2	1686.2	5990.3	1813.3	7756.9	17830.8	3986.4	1079.5	4532.8	2721.0	2721.1	2486.4	81466.4
1997	10285.1	11999.3	3386.0	2550.2	672.8	1680.8	5996.5	1804.2	7782.2	17856.9	4005.9	1076.9	4506.2	2700.4	2735.1	2471.5	81509.9
1998	10297.4	12013.0	3346.2	2565.7	667.4	1672.9	5995.8	1793.6	7800.6	17856.1	4017.6	1071.1	4473.7	2673.9	2745.5	2455.5	81446.0
1999	10323.5	12049.7	3316.8	2577.2	661.6	1668.9	6001.2	1783.0	7820.4	17853.8	4023.6	1065.7	4438.1	2645.5	2754.4	2439.1	81422.4
2000	10359.2	12113.9	3298.8	2580.6	657.2	1672.5	6013.0	1770.0	7843.1	17856.1	4027.9	1062.2	4402.0	2614.0	2764.7	2421.3	81456.6
2001	10408.2	12193.5	3290.2	2574.4	655.1	1679.3	6021.0	1753.8	7863.8	17867.4	4036.5	1058.9	4359.9	2577.9	2776.7	2400.4	81517.3
2002	10463.3	12264.2	3286.1	2562.4	655.6	1682.0	6028.0	1736.8	7882.8	17886.0	4047.6	1056.3	4317.2	2542.7	2788.6	2378.8	81578.4
2003	10496.2	12303.6	3277.1	2551.1	656.8	1681.8	6029.0	1721.5	7893.5	17885.3	4052.0	1053.1	4281.7	2511.8	2796.6	2357.6	81548.7
2004	10511.6	12324.7	3265.9	2541.7	656.9	1680.6	6027.0	1707.5	7896.4	17870.6	4053.2	1048.1	4251.2	2482.6	2801.2	2337.3	81456.5
2005	10520.7	12340.3	3260.5	2532.1	656.7	1681.1	6023.4	1693.6	7889.8	17845.6	4052.9	1041.8	4223.4	2454.1	2804.7	2316.1	81336.7
2006	10519.0	12357.7	3259.8	2520.2	656.6	1686.7	6007.5	1679.3	7874.7	17808.5	4048.3	1034.5	4196.2	2426.0	2806.0	2292.1	81173.1
2007	10513.7	12376.3	3261.3	2506.4	656.0	1696.2	5992.9	1664.1	7857.9	17763.8	4041.3	1026.9	4165.6	2395.7	2806.8	2267.5	80992.3
2008	10506.2	12382.6	3265.7	2491.8	654.4	1701.2	5982.9	1648.0	7834.4	17701.6	4028.6	1019.7	4133.2	2363.9	2805.3	2243.8	80763.5
2009	10491.0	12370.4	3269.4	2477.8	653.3	1698.8	5972.9	1632.3	7807.2	17625.1	4011.6	1011.9	4103.5	2334.0	2801.2	2222.1	80482.6
2010	10480.4	12372.8	3274.2	2466.3	652.2	1701.7	5969.3	1619.9	7787.0	17566.4	3998.9	1004.8	4077.9	2308.8	2799.7	2203.8	80284.1
2011	10495.5	12413.4	3302.2	2457.2	651.8	1711.9	5981.6	1610.8	7776.5	17545.1	3992.1	999.9	4060.2	2287.1	2801.2	2188.5	80275.0
2012	10540.8	12481.5	3350.6	2451.3	653.5	1726.2	6005.1	1603.6	7776.6	17549.6	3990.2	996.1	4052.2	2268.1	2804.4	2176.0	80425.8
2013	10600.2	12561.9	3398.5	2449.4	656.1	1740.3	6031.0	1598.4	7784.8	17563.1	3992.3	992.5	4048.3	2252.0	2811.2	2165.7	80645.6
2014	10674.0	12647.9	3445.8	2453.5	659.6	1754.6	6069.7	1597.8	7808.6	17605.0	4003.0	989.9	4050.8	2240.1	2823.4	2158.8	80982.5
2015	10798.1	12767.5	3494.9	2471.3	666.7	1775.1	6135.0	1605.8	7876.7	17751.8	4032.2	992.3	4070.1	2240.5	2844.8	2163.7	81686.6
2016	10915.8	12887.1	3547.4	2489.7	675.1	1798.9	6194.6	1611.5	7936.1	17877.8	4059.4	996.1	4083.3	2240.9	2870.3	2164.4	82348.7
2017	10987.7	12964.0	3594.2	2499.3	679.9	1820.5	6228.2	1610.9	7954.2	17901.1	4069.9	995.4	4081.5	2229.7	2885.9	2154.7	82657.0
2018	11050.7	13038.7	3624.9	2506.6	680.6	1834.2	6250.5	1609.6	7978.9	17914.3	4078.1	992.2	4075.3	2213.9	2893.0	2145.5	82887.0
