"Labore mit Rückstau"	"KW"	"Probenrückstau"
25	15	3.423
34	16	2.258
29	17	2.393
30	18	3.790
29	19	3.224
27	20	1.379
28	21	1.539
24	22	1.295
28	23	2.478
51	24	1.642
46	25	553
71	26	3.106
46	27	960
25	28	3.242
42	29	1.483
22	30	2.256
24	31	1.274
36	32	13.115
44	33	17.143
49	34	27.929
49	35	36.812
48	36	30.057
51	37	32.397
43	38	12.876
46	39	15.983
42	40	8.245
47	41	16.840
52	42	20.799
57	43	68.574
69	44	98.931
66	45	60.113
58	46	23.654
48	47	17.037
53	48	14.091
50	49	12.237
50	50	19.009
57	51	21.364
43	52	11.321
40	53	6.557
47	1	11.691
46	2	11.337
