				
"KW, für die die Angabe prognostisch erfolgt ist:"	"Anzahl übermittelnde Labore"	"Testkapazität pro Tag"	"Theoretische wöchentliche Kapazität anhand von Wochenarbeitstagen"	"Reale Testkapazität zum Zeitpunkt der Abfrage"
"2020, KW11"	28	7.115	"-"	"-"
"2020, KW12"	93	31.010	"-"	"-"
"2020, KW13"	111	64.725	"-"	185.655
"2020, KW14"	113	103.515	"-"	284.580
"2020, KW15"	132	116.655	"-"	462.880
"2020, KW16"	112	123.304	730.156	596.910
"2020, KW17"	126	136.064	818.426	580.890
"2020, KW18"	133	141.815	860.494	741.399
"2020, KW19"	137	153.698	964.962	820.491
"2020, KW20"	134	157.150	1.038.223	831.816
"2020, KW21"	136	159.418	1.050.676	874.362
"2020, KW22"	143	156.824	1.017.179	888.561
"2020, KW23"	137	161.911	1.083.345	896.041
"2020, KW24"	139	168.748	1.092.448	939.801
"2020, KW25"	138	166.445	1.099.355	974.698
"2020, KW26"	137	169.473	1.112.075	1.010.309
"2020, KW27"	137	169.501	1.118.354	994.060
"2020, KW28"	145	176.898	1.174.960	1.003.758
"2020, KW29"	146	176.046	1.178.008	1.020.962
"2020, KW30"	145	177.687	1.182.599	1.041.871
"2020, KW31"	145	180.539	1.203.852	1.063.581
"2020, KW32"	149	177.442	1.167.188	1.063.790
"2020, KW33"	151	183.977	1.220.992	1.048.585
"2020, KW34"	157	191.768	1.267.655	1.153.170
"2020, KW35"	163	210.142	1.402.475	1.306.192
"2020, KW36"	168	202.761	1.345.787	1.155.779
"2020, KW37"	168	217.499	1.440.471	1.154.137
"2020, KW38"	165	219.092	1.455.142	1.217.216
"2020, KW39"	170	228.348	1.516.162	1.339.112
"2020, KW40"	168	232.334	1.541.289	1.354.917
"2020, KW41"	166	235.365	1.573.748	1.457.887
"2020, KW42"	164	256.100	1.712.246	1.568.002
"2020, KW43"	167	262.817	1.755.794	1.606.830
"2020, KW44"	184	272.397	1.828.061	1.612.826
"2020, KW45"	176	289.310	1.900.642	1.596.042
"2020, KW46"	170	292.639	1.959.403	1.677.221
"2020, KW47"	175	307.336	2.063.178	1.812.210
"2020, KW48"	169	313.746	2.100.608	1.837.984
"2020, KW49"	168	318.746	2.136.828	1.918.794
"2020, KW50"	175	331.036	2.219.158	1.944.190
"2020, KW51"	175	339.156	2.268.312	2.019.604
"2020, KW52"	181	204.862	1.364.843	1.203.721
"2020, KW53"	173	208.790	1.355.677	1.227.355
"2021, KW1"	177	331.086	2.098.574	1.874.827
"2021, KW2"	176	334.756	2.222.744	2.017.760
"2021, KW3"	173	339.447	2.273.073	2.121.357
